<?xml version="1.0" encoding="UTF-8"?>
<session version="1.0">
<refactoring comment="Rename resource &apos;demo/src/main/resources/public/hello.js&apos; to &apos;app.js&apos;" description="Rename resource &apos;hello.js&apos;" flags="7" id="org.eclipse.ltk.core.refactoring.rename.resource" input="src/main/resources/public/hello.js" name="app.js" stamp="1654420510021" updateReferences="true"/>
</session>